<svg width="1337" height="1221" viewBox="0 0 1337 1221" fill="none" xmlns="http://www.w3.org/2000/svg">
<rect y="47" width="614" height="350" rx="36" fill="#98C379"/>
<rect y="266" width="614" height="85" fill="#1D1E1F"/>
<rect x="687" width="650" height="896" rx="77" fill="#ABB2BF"/>
<rect x="746" y="161" width="532" height="146" fill="#3E4451"/>
<path d="M1035.47 132C1033.42 131.172 1031.95 129.321 1031.61 127.128C1031.37 125.862 1031.61 124.985 1033.56 121.477C1040.88 108.323 1044.64 93.4647 1044.44 78.4111C1044.64 63.796 1041.08 49.5219 1034.05 36.7092C1033.03 34.5657 1032.1 32.5196 1031.32 30.3273C1031.61 28.476 1032.54 26.7709 1034.05 25.7479C1036.25 24.5787 1038.93 24.8223 1040.93 26.1863C1042.3 27.9402 1043.47 29.694 1044.44 31.7401C1049.69 41.7802 1053.27 52.6074 1055.03 63.796C1056.15 72.6138 1056.3 81.5777 1055.47 90.4443C1053.96 101.844 1050.59 112.854 1045.42 123.133C1042.3 129.369 1040.54 132 1038.69 132H1035.47ZM1014.19 121.234C1011.41 120.454 1009.65 117.628 1010.24 114.803C1010.24 114.218 1011.75 111.539 1013.12 108.811C1018.87 97.7518 1021.36 85.2802 1020.24 72.8574C1019.56 63.9421 1016.97 55.2705 1012.73 47.427C1009.65 41.2887 1009.46 40.3143 1011.26 37.6836C1013.41 35.2964 1016.97 34.9554 1019.61 37.0015C1023.12 42.1656 1025.9 47.8168 1027.95 53.7603C1034.2 72.2241 1033.22 92.3442 1025.22 110.077C1021.12 119.285 1018.24 122.257 1014.19 120.99V121.234ZM992.232 110.37C991.363 109.98 990.593 109.402 989.976 108.677C989.36 107.952 988.914 107.099 988.67 106.18C988.67 105.206 988.67 103.939 990.866 100.042C994.443 93.5667 996.319 86.2927 996.319 78.8983C996.319 71.5039 994.443 64.2299 990.866 57.7551C987.694 51.6167 987.694 50.35 990.28 48.0116C991.207 46.9398 992.574 46.404 994.038 46.5988C997.161 46.5988 998.917 48.1091 1001.55 53.6141C1005.7 61.2194 1007.85 69.7511 1007.8 78.4111C1007.99 87.2289 1005.85 95.998 1001.6 103.744C998.966 108.859 997.648 110.077 995.014 110.516C994.086 110.613 993.111 110.516 992.232 110.077V110.37ZM971.689 99.9928C970.079 99.2134 968.81 97.898 968.176 96.1929C967.688 94.4878 968.176 93.0263 970.128 89.9084C972.568 86.5956 973.739 82.5034 973.495 78.4111C973.836 74.2702 972.714 70.1779 970.323 66.7677C969.513 65.5395 968.795 64.2531 968.176 62.9191C967.639 59.8499 969.689 56.9269 973.056 56.3423C975.691 55.8551 977.545 56.9756 979.985 60.6781C983.446 65.9375 985.291 72.0934 985.291 78.3868C985.291 84.6802 983.446 90.836 979.985 96.0955C977.496 99.8467 974.666 100.967 971.738 99.9928H971.689Z" fill="black" fill-opacity="0.2"/>
<path d="M1253.8 231C1252.68 230.559 1251.88 229.573 1251.7 228.405C1251.56 227.73 1251.7 227.263 1252.76 225.394C1256.75 218.387 1258.8 210.472 1258.7 202.453C1258.8 194.667 1256.86 187.063 1253.03 180.238C1252.47 179.096 1251.96 178.006 1251.54 176.838C1251.7 175.852 1252.2 174.943 1253.03 174.398C1254.22 173.776 1255.69 173.905 1256.78 174.632C1257.53 175.566 1258.16 176.501 1258.7 177.591C1261.56 182.939 1263.51 188.707 1264.47 194.667C1265.08 199.364 1265.16 204.14 1264.71 208.863C1263.89 214.936 1262.05 220.801 1259.23 226.277C1257.53 229.599 1256.57 231 1255.56 231H1253.8ZM1242.19 225.265C1240.68 224.849 1239.72 223.344 1240.04 221.839C1240.04 221.527 1240.86 220.1 1241.61 218.647C1244.75 212.756 1246.11 206.112 1245.49 199.494C1245.12 194.745 1243.71 190.125 1241.4 185.947C1239.72 182.677 1239.61 182.158 1240.6 180.757C1241.77 179.485 1243.71 179.303 1245.15 180.393C1247.07 183.144 1248.58 186.155 1249.7 189.321C1253.11 199.157 1252.57 209.875 1248.21 219.322C1245.97 224.226 1244.4 225.81 1242.19 225.135V225.265ZM1230.22 219.477C1229.74 219.27 1229.32 218.962 1228.99 218.576C1228.65 218.19 1228.41 217.735 1228.27 217.245C1228.27 216.726 1228.27 216.052 1229.47 213.975C1231.42 210.526 1232.45 206.651 1232.45 202.712C1232.45 198.773 1231.42 194.898 1229.47 191.449C1227.74 188.179 1227.74 187.504 1229.15 186.259C1229.66 185.688 1230.4 185.402 1231.2 185.506C1232.91 185.506 1233.86 186.31 1235.3 189.243C1237.56 193.294 1238.74 197.839 1238.71 202.453C1238.81 207.15 1237.64 211.821 1235.33 215.948C1233.89 218.673 1233.17 219.322 1231.73 219.555C1231.23 219.607 1230.7 219.555 1230.22 219.322V219.477ZM1219.01 213.949C1218.13 213.534 1217.44 212.834 1217.1 211.925C1216.83 211.017 1217.1 210.238 1218.16 208.577C1219.49 206.813 1220.13 204.633 1220 202.453C1220.18 200.247 1219.57 198.067 1218.27 196.25C1217.83 195.596 1217.43 194.911 1217.1 194.2C1216.8 192.565 1217.92 191.008 1219.76 190.696C1221.19 190.437 1222.21 191.034 1223.54 193.006C1225.43 195.808 1226.43 199.087 1226.43 202.44C1226.43 205.792 1225.43 209.072 1223.54 211.873C1222.18 213.872 1220.64 214.468 1219.04 213.949H1219.01Z" fill="#98C379"/>
<ellipse cx="1228" cy="221.5" rx="16" ry="15.5" fill="#3E4451"/>
<path d="M1228.75 223.3H1226.25V215.5H1228.75M1228.75 228.5H1226.25V225.9H1228.75M1227.5 209C1225.86 209 1224.23 209.336 1222.72 209.99C1221.2 210.643 1219.82 211.6 1218.66 212.808C1216.32 215.246 1215 218.552 1215 222C1215 225.448 1216.32 228.754 1218.66 231.192C1219.82 232.4 1221.2 233.357 1222.72 234.01C1224.23 234.664 1225.86 235 1227.5 235C1230.82 235 1233.99 233.63 1236.34 231.192C1238.68 228.754 1240 225.448 1240 222C1240 220.293 1239.68 218.602 1239.05 217.025C1238.42 215.448 1237.5 214.015 1236.34 212.808C1235.18 211.6 1233.8 210.643 1232.28 209.99C1230.77 209.336 1229.14 209 1227.5 209Z" fill="#98C379"/>
<rect x="759" y="448" width="67" height="67" rx="8" fill="#5C6370"/>
<rect x="759" y="524" width="67" height="67" rx="8" fill="#5C6370"/>
<rect x="759" y="600" width="67" height="67" rx="8" fill="#5C6370"/>
<rect x="759" y="676" width="67" height="67" rx="8" fill="#5C6370"/>
<rect x="759" y="752" width="67" height="67" rx="8" fill="#5C6370"/>
<rect x="978" y="448" width="67" height="67" rx="8" fill="#5C6370"/>
<rect x="978" y="524" width="67" height="67" rx="8" fill="#5C6370"/>
<rect x="978" y="600" width="67" height="67" rx="8" fill="#5C6370"/>
<rect x="978" y="676" width="67" height="67" rx="8" fill="#5C6370"/>
<rect x="978" y="752" width="67" height="67" rx="8" fill="#5C6370"/>
<rect x="1197" y="448" width="67" height="67" rx="8" fill="#5C6370"/>
<rect x="1197" y="524" width="67" height="67" rx="8" fill="#5C6370"/>
<rect x="1197" y="600" width="67" height="67" rx="8" fill="#5C6370"/>
<rect x="1197" y="676" width="67" height="67" rx="8" fill="#5C6370"/>
<rect x="1197" y="752" width="67" height="67" rx="8" fill="#5C6370"/>
<rect x="832" y="448" width="67" height="67" rx="8" fill="#5C6370"/>
<rect x="832" y="524" width="67" height="67" rx="8" fill="#5C6370"/>
<rect x="832" y="600" width="67" height="67" rx="8" fill="#5C6370"/>
<rect x="832" y="676" width="67" height="67" rx="8" fill="#5C6370"/>
<rect x="832" y="752" width="67" height="67" rx="8" fill="#5C6370"/>
<rect x="1051" y="448" width="67" height="67" rx="8" fill="#5C6370"/>
<rect x="1051" y="524" width="67" height="67" rx="8" fill="#5C6370"/>
<rect x="1051" y="600" width="67" height="67" rx="8" fill="#5C6370"/>
<rect x="1051" y="676" width="67" height="67" rx="8" fill="#5C6370"/>
<rect x="1051" y="752" width="67" height="67" rx="8" fill="#5C6370"/>
<rect x="905" y="448" width="67" height="67" rx="8" fill="#5C6370"/>
<rect x="905" y="524" width="67" height="67" rx="8" fill="#5C6370"/>
<rect x="905" y="600" width="67" height="67" rx="8" fill="#5C6370"/>
<rect x="905" y="676" width="67" height="67" rx="8" fill="#5C6370"/>
<rect x="905" y="752" width="67" height="67" rx="8" fill="#5C6370"/>
<rect x="1124" y="448" width="67" height="67" rx="8" fill="#5C6370"/>
<rect x="1124" y="524" width="67" height="67" rx="8" fill="#5C6370"/>
<rect x="1124" y="600" width="67" height="67" rx="8" fill="#5C6370"/>
<rect x="1124" y="676" width="67" height="67" rx="8" fill="#5C6370"/>
<rect x="1124" y="752" width="67" height="67" rx="8" fill="#5C6370"/>
<rect x="1097" y="981" width="240" height="240" rx="40" fill="#ABB2BF"/>
<path d="M62 1053C62 1036.43 75.4315 1023 92 1023H1097V1178H92C75.4315 1178 62 1164.57 62 1148V1053Z" fill="#D9D9D9"/>
<path d="M1223.39 278.856V285.352H1229.78V288.68H1223.39V295.176H1219.76V288.68H1213.42V285.352H1219.76V278.856H1223.39ZM1244.13 274.872V296.36H1239.99V279.128L1235.27 282.056L1233.46 279.128L1240.4 274.872H1244.13ZM1248.44 293.752V297H1234.63V293.752H1248.44ZM1259.13 274.392C1260.72 274.392 1262.05 274.675 1263.13 275.24C1264.22 275.805 1265.04 276.568 1265.59 277.528C1266.15 278.477 1266.42 279.523 1266.42 280.664C1266.42 281.603 1266.26 282.52 1265.94 283.416C1265.62 284.312 1265.1 285.256 1264.38 286.248C1263.66 287.24 1262.71 288.344 1261.53 289.56C1260.34 290.765 1258.88 292.141 1257.14 293.688H1266.94L1266.47 297H1252.31V293.912C1253.84 292.44 1255.15 291.144 1256.26 290.024C1257.37 288.893 1258.3 287.896 1259.05 287.032C1259.8 286.168 1260.4 285.395 1260.84 284.712C1261.29 284.019 1261.61 283.373 1261.8 282.776C1261.99 282.179 1262.09 281.581 1262.09 280.984C1262.09 279.971 1261.79 279.171 1261.21 278.584C1260.63 277.997 1259.82 277.704 1258.78 277.704C1257.85 277.704 1257.06 277.885 1256.41 278.248C1255.77 278.6 1255.14 279.176 1254.52 279.976L1251.86 277.96C1252.71 276.829 1253.71 275.955 1254.87 275.336C1256.03 274.707 1257.45 274.392 1259.13 274.392Z" fill="#98C379"/>
<path d="M1171 297V275H1203V297H1171ZM1180.6 292.286H1193.4V289.143H1180.6V292.286ZM1175.8 287.571H1179V284.429H1175.8V287.571ZM1180.6 287.571H1183.8V284.429H1180.6V287.571ZM1185.4 287.571H1188.6V284.429H1185.4V287.571ZM1190.2 287.571H1193.4V284.429H1190.2V287.571ZM1195 287.571H1198.2V284.429H1195V287.571ZM1175.8 282.857H1179V279.714H1175.8V282.857ZM1180.6 282.857H1183.8V279.714H1180.6V282.857ZM1185.4 282.857H1188.6V279.714H1185.4V282.857ZM1190.2 282.857H1193.4V279.714H1190.2V282.857ZM1195 282.857H1198.2V279.714H1195V282.857Z" fill="#98C379"/>
<rect x="20" y="73" width="244" height="18" rx="9" fill="black"/>
<rect x="20" y="105" width="389" height="14" rx="7" fill="black"/>
<rect x="20" y="133" width="344" height="14" rx="7" fill="black"/>
<path d="M39.9886 185H38.3864C38.267 184.403 38.0511 183.852 37.7386 183.347C37.4318 182.835 37.0455 182.389 36.5795 182.009C36.1136 181.628 35.5852 181.332 34.9943 181.122C34.4034 180.912 33.7642 180.807 33.0767 180.807C31.9744 180.807 30.9688 181.094 30.0597 181.668C29.1563 182.241 28.4318 183.085 27.8864 184.199C27.3466 185.307 27.0767 186.665 27.0767 188.273C27.0767 189.892 27.3466 191.256 27.8864 192.364C28.4318 193.472 29.1563 194.312 30.0597 194.886C30.9688 195.455 31.9744 195.739 33.0767 195.739C33.7642 195.739 34.4034 195.634 34.9943 195.423C35.5852 195.213 36.1136 194.92 36.5795 194.545C37.0455 194.165 37.4318 193.719 37.7386 193.207C38.0511 192.696 38.267 192.142 38.3864 191.545H39.9886C39.8466 192.347 39.5795 193.094 39.1875 193.787C38.8011 194.474 38.3068 195.077 37.7045 195.594C37.108 196.111 36.4205 196.514 35.642 196.804C34.8636 197.094 34.0085 197.239 33.0767 197.239C31.6108 197.239 30.3097 196.872 29.1733 196.139C28.0369 195.401 27.1449 194.361 26.4972 193.02C25.8551 191.679 25.5341 190.097 25.5341 188.273C25.5341 186.449 25.8551 184.866 26.4972 183.526C27.1449 182.185 28.0369 181.148 29.1733 180.415C30.3097 179.676 31.6108 179.307 33.0767 179.307C34.0085 179.307 34.8636 179.452 35.642 179.741C36.4205 180.026 37.108 180.429 37.7045 180.952C38.3068 181.469 38.8011 182.071 39.1875 182.759C39.5795 183.446 39.8466 184.193 39.9886 185ZM43.4339 197V183.909H44.9595V197H43.4339ZM44.2095 181.659C43.897 181.659 43.63 181.554 43.4084 181.344C43.1868 181.128 43.076 180.869 43.076 180.568C43.076 180.267 43.1868 180.011 43.4084 179.801C43.63 179.585 43.897 179.477 44.2095 179.477C44.522 179.477 44.7891 179.585 45.0107 179.801C45.2322 180.011 45.343 180.267 45.343 180.568C45.343 180.869 45.2322 181.128 45.0107 181.344C44.7891 181.554 44.522 181.659 44.2095 181.659ZM54.358 183.909V185.23H47.9233V183.909H54.358ZM49.9347 197V181.991C49.9347 181.287 50.0966 180.693 50.4205 180.21C50.75 179.727 51.179 179.361 51.7074 179.111C52.2358 178.861 52.7955 178.736 53.3864 178.736C53.7841 178.736 54.1136 178.77 54.375 178.838C54.642 178.901 54.8523 178.963 55.0057 179.026L54.5625 180.355C54.4489 180.321 54.3097 180.281 54.1449 180.236C53.9801 180.19 53.7727 180.168 53.5227 180.168C52.8636 180.168 52.3551 180.352 51.9972 180.722C51.6392 181.091 51.4602 181.619 51.4602 182.307L51.4517 197H49.9347ZM57.3857 197V183.909H58.8601V185.92H58.9709C59.2322 185.261 59.6868 184.73 60.3345 184.327C60.9879 183.918 61.7266 183.713 62.5504 183.713C62.6754 183.713 62.8146 183.716 62.968 183.722C63.1214 183.727 63.2493 183.733 63.3516 183.739V185.281C63.2834 185.27 63.1641 185.253 62.9936 185.23C62.8232 185.207 62.6385 185.196 62.4396 185.196C61.7578 185.196 61.1499 185.341 60.6158 185.631C60.0874 185.915 59.6697 186.31 59.3629 186.815C59.0561 187.321 58.9027 187.898 58.9027 188.545V197H57.3857ZM69.5966 197.298C68.8068 197.298 68.0852 197.145 67.4318 196.838C66.7784 196.526 66.2585 196.077 65.8722 195.491C65.4858 194.901 65.2926 194.185 65.2926 193.344C65.2926 192.696 65.4148 192.151 65.6591 191.707C65.9034 191.264 66.25 190.901 66.6989 190.616C67.1477 190.332 67.679 190.108 68.2926 189.943C68.9063 189.778 69.5824 189.651 70.321 189.56C71.054 189.469 71.6733 189.389 72.179 189.321C72.6903 189.253 73.0795 189.145 73.3466 188.997C73.6136 188.849 73.7472 188.611 73.7472 188.281V187.974C73.7472 187.082 73.4801 186.381 72.946 185.869C72.4176 185.352 71.6563 185.094 70.6619 185.094C69.7188 185.094 68.9489 185.301 68.3523 185.716C67.7614 186.131 67.3466 186.619 67.108 187.182L65.6676 186.662C65.9631 185.946 66.3722 185.375 66.8949 184.949C67.4176 184.517 68.0028 184.207 68.6506 184.02C69.2983 183.827 69.9545 183.73 70.6193 183.73C71.1193 183.73 71.6392 183.795 72.179 183.926C72.7244 184.057 73.2301 184.284 73.696 184.608C74.1619 184.926 74.5398 185.372 74.8295 185.946C75.1193 186.514 75.2642 187.236 75.2642 188.111V197H73.7472V194.929H73.6534C73.4716 195.315 73.2017 195.69 72.8438 196.054C72.4858 196.418 72.0369 196.716 71.4972 196.949C70.9574 197.182 70.3239 197.298 69.5966 197.298ZM69.8011 195.909C70.608 195.909 71.3068 195.73 71.8977 195.372C72.4886 195.014 72.9432 194.54 73.2614 193.949C73.5852 193.352 73.7472 192.696 73.7472 191.98V190.088C73.6335 190.196 73.4432 190.293 73.1761 190.378C72.9148 190.463 72.6108 190.54 72.2642 190.608C71.9233 190.67 71.5824 190.724 71.2415 190.77C70.9006 190.815 70.5938 190.855 70.321 190.889C69.5824 190.98 68.9517 191.122 68.429 191.315C67.9063 191.509 67.5057 191.776 67.2273 192.116C66.9489 192.452 66.8097 192.884 66.8097 193.412C66.8097 194.207 67.0938 194.824 67.6619 195.261C68.2301 195.693 68.9432 195.909 69.8011 195.909ZM90.7628 197.273C89.6889 197.273 88.7486 196.989 87.9418 196.42C87.1349 195.852 86.5043 195.06 86.0497 194.043C85.6009 193.026 85.3764 191.841 85.3764 190.489C85.3764 189.142 85.6009 187.963 86.0497 186.952C86.5043 185.935 87.1378 185.145 87.9503 184.582C88.7628 184.014 89.7088 183.73 90.7884 183.73C91.5838 183.73 92.2457 183.872 92.7741 184.156C93.3026 184.435 93.7259 184.781 94.044 185.196C94.3622 185.611 94.6094 186.014 94.7855 186.406H94.9219V179.545H96.4474V197H94.9645V194.571H94.7855C94.6094 194.969 94.3594 195.378 94.0355 195.798C93.7116 196.213 93.2827 196.562 92.7486 196.847C92.2202 197.131 91.5582 197.273 90.7628 197.273ZM90.9418 195.884C91.7884 195.884 92.5099 195.653 93.1065 195.193C93.7031 194.727 94.1577 194.088 94.4702 193.276C94.7884 192.457 94.9474 191.52 94.9474 190.463C94.9474 189.418 94.7912 188.494 94.4787 187.693C94.1662 186.886 93.7116 186.256 93.1151 185.801C92.5185 185.341 91.794 185.111 90.9418 185.111C90.0668 185.111 89.3281 185.349 88.7259 185.827C88.1293 186.298 87.6747 186.937 87.3622 187.744C87.0554 188.551 86.902 189.457 86.902 190.463C86.902 191.48 87.0582 192.398 87.3707 193.216C87.6832 194.034 88.1378 194.685 88.7344 195.168C89.3366 195.645 90.0724 195.884 90.9418 195.884ZM106.061 197.273C104.839 197.273 103.783 196.989 102.891 196.42C101.999 195.847 101.308 195.054 100.82 194.043C100.337 193.026 100.095 191.855 100.095 190.531C100.095 189.213 100.337 188.043 100.82 187.02C101.308 185.991 101.982 185.187 102.839 184.608C103.703 184.023 104.7 183.73 105.831 183.73C106.541 183.73 107.226 183.861 107.885 184.122C108.544 184.378 109.135 184.773 109.658 185.307C110.186 185.835 110.604 186.503 110.911 187.31C111.217 188.111 111.371 189.06 111.371 190.156V190.906H101.143V189.568H109.82C109.82 188.727 109.649 187.972 109.308 187.301C108.973 186.625 108.504 186.091 107.902 185.699C107.305 185.307 106.615 185.111 105.831 185.111C105.001 185.111 104.271 185.332 103.641 185.776C103.01 186.219 102.516 186.804 102.158 187.531C101.805 188.259 101.626 189.054 101.621 189.918V190.719C101.621 191.759 101.8 192.668 102.158 193.446C102.521 194.219 103.036 194.818 103.7 195.244C104.365 195.67 105.152 195.884 106.061 195.884C106.68 195.884 107.223 195.787 107.689 195.594C108.161 195.401 108.555 195.142 108.874 194.818C109.197 194.489 109.442 194.128 109.607 193.736L111.047 194.205C110.848 194.756 110.521 195.264 110.067 195.73C109.618 196.196 109.055 196.571 108.379 196.855C107.709 197.134 106.936 197.273 106.061 197.273ZM135.45 185H133.847C133.728 184.403 133.512 183.852 133.2 183.347C132.893 182.835 132.506 182.389 132.04 182.009C131.575 181.628 131.046 181.332 130.455 181.122C129.864 180.912 129.225 180.807 128.538 180.807C127.435 180.807 126.43 181.094 125.521 181.668C124.617 182.241 123.893 183.085 123.347 184.199C122.808 185.307 122.538 186.665 122.538 188.273C122.538 189.892 122.808 191.256 123.347 192.364C123.893 193.472 124.617 194.312 125.521 194.886C126.43 195.455 127.435 195.739 128.538 195.739C129.225 195.739 129.864 195.634 130.455 195.423C131.046 195.213 131.575 194.92 132.04 194.545C132.506 194.165 132.893 193.719 133.2 193.207C133.512 192.696 133.728 192.142 133.847 191.545H135.45C135.308 192.347 135.04 193.094 134.648 193.787C134.262 194.474 133.768 195.077 133.165 195.594C132.569 196.111 131.881 196.514 131.103 196.804C130.325 197.094 129.469 197.239 128.538 197.239C127.072 197.239 125.771 196.872 124.634 196.139C123.498 195.401 122.606 194.361 121.958 193.02C121.316 191.679 120.995 190.097 120.995 188.273C120.995 186.449 121.316 184.866 121.958 183.526C122.606 182.185 123.498 181.148 124.634 180.415C125.771 179.676 127.072 179.307 128.538 179.307C129.469 179.307 130.325 179.452 131.103 179.741C131.881 180.026 132.569 180.429 133.165 180.952C133.768 181.469 134.262 182.071 134.648 182.759C135.04 183.446 135.308 184.193 135.45 185ZM144.17 197.273C142.949 197.273 141.892 196.989 141 196.42C140.108 195.847 139.418 195.054 138.929 194.043C138.446 193.026 138.205 191.855 138.205 190.531C138.205 189.213 138.446 188.043 138.929 187.02C139.418 185.991 140.091 185.187 140.949 184.608C141.813 184.023 142.81 183.73 143.94 183.73C144.651 183.73 145.335 183.861 145.994 184.122C146.653 184.378 147.244 184.773 147.767 185.307C148.295 185.835 148.713 186.503 149.02 187.31C149.327 188.111 149.48 189.06 149.48 190.156V190.906H139.253V189.568H147.929C147.929 188.727 147.759 187.972 147.418 187.301C147.082 186.625 146.614 186.091 146.011 185.699C145.415 185.307 144.724 185.111 143.94 185.111C143.111 185.111 142.381 185.332 141.75 185.776C141.119 186.219 140.625 186.804 140.267 187.531C139.915 188.259 139.736 189.054 139.73 189.918V190.719C139.73 191.759 139.909 192.668 140.267 193.446C140.631 194.219 141.145 194.818 141.81 195.244C142.474 195.67 143.261 195.884 144.17 195.884C144.79 195.884 145.332 195.787 145.798 195.594C146.27 195.401 146.665 195.142 146.983 194.818C147.307 194.489 147.551 194.128 147.716 193.736L149.156 194.205C148.957 194.756 148.631 195.264 148.176 195.73C147.727 196.196 147.165 196.571 146.489 196.855C145.818 197.134 145.045 197.273 144.17 197.273ZM161.619 186.781L160.229 187.173C160.093 186.781 159.9 186.426 159.65 186.108C159.4 185.79 159.073 185.537 158.67 185.349C158.272 185.162 157.778 185.068 157.187 185.068C156.3 185.068 155.573 185.278 155.005 185.699C154.437 186.119 154.153 186.662 154.153 187.327C154.153 187.889 154.346 188.347 154.732 188.699C155.124 189.045 155.727 189.321 156.539 189.526L158.516 190.011C159.613 190.278 160.434 190.702 160.979 191.281C161.531 191.861 161.806 192.588 161.806 193.463C161.806 194.202 161.602 194.858 161.192 195.432C160.783 196.006 160.212 196.457 159.479 196.787C158.752 197.111 157.908 197.273 156.948 197.273C155.67 197.273 154.616 196.986 153.786 196.412C152.957 195.832 152.425 194.997 152.192 193.906L153.65 193.548C153.837 194.327 154.204 194.915 154.749 195.312C155.3 195.71 156.025 195.909 156.923 195.909C157.928 195.909 158.732 195.685 159.335 195.236C159.937 194.781 160.238 194.213 160.238 193.531C160.238 193.003 160.062 192.56 159.71 192.202C159.357 191.838 158.823 191.571 158.107 191.401L155.968 190.889C154.832 190.616 153.991 190.185 153.445 189.594C152.9 189.003 152.627 188.27 152.627 187.395C152.627 186.673 152.823 186.04 153.215 185.494C153.607 184.943 154.147 184.511 154.835 184.199C155.522 183.886 156.306 183.73 157.187 183.73C158.386 183.73 159.343 184.003 160.059 184.548C160.781 185.088 161.3 185.832 161.619 186.781ZM168.784 197.298C167.994 197.298 167.273 197.145 166.619 196.838C165.966 196.526 165.446 196.077 165.06 195.491C164.673 194.901 164.48 194.185 164.48 193.344C164.48 192.696 164.602 192.151 164.847 191.707C165.091 191.264 165.438 190.901 165.886 190.616C166.335 190.332 166.866 190.108 167.48 189.943C168.094 189.778 168.77 189.651 169.509 189.56C170.241 189.469 170.861 189.389 171.366 189.321C171.878 189.253 172.267 189.145 172.534 188.997C172.801 188.849 172.935 188.611 172.935 188.281V187.974C172.935 187.082 172.668 186.381 172.134 185.869C171.605 185.352 170.844 185.094 169.849 185.094C168.906 185.094 168.136 185.301 167.54 185.716C166.949 186.131 166.534 186.619 166.295 187.182L164.855 186.662C165.151 185.946 165.56 185.375 166.082 184.949C166.605 184.517 167.19 184.207 167.838 184.02C168.486 183.827 169.142 183.73 169.807 183.73C170.307 183.73 170.827 183.795 171.366 183.926C171.912 184.057 172.418 184.284 172.884 184.608C173.349 184.926 173.727 185.372 174.017 185.946C174.307 186.514 174.452 187.236 174.452 188.111V197H172.935V194.929H172.841C172.659 195.315 172.389 195.69 172.031 196.054C171.673 196.418 171.224 196.716 170.685 196.949C170.145 197.182 169.511 197.298 168.784 197.298ZM168.989 195.909C169.795 195.909 170.494 195.73 171.085 195.372C171.676 195.014 172.131 194.54 172.449 193.949C172.773 193.352 172.935 192.696 172.935 191.98V190.088C172.821 190.196 172.631 190.293 172.364 190.378C172.102 190.463 171.798 190.54 171.452 190.608C171.111 190.67 170.77 190.724 170.429 190.77C170.088 190.815 169.781 190.855 169.509 190.889C168.77 190.98 168.139 191.122 167.616 191.315C167.094 191.509 166.693 191.776 166.415 192.116C166.136 192.452 165.997 192.884 165.997 193.412C165.997 194.207 166.281 194.824 166.849 195.261C167.418 195.693 168.131 195.909 168.989 195.909ZM178.487 197V183.909H179.962V185.92H180.072C180.334 185.261 180.788 184.73 181.436 184.327C182.089 183.918 182.828 183.713 183.652 183.713C183.777 183.713 183.916 183.716 184.07 183.722C184.223 183.727 184.351 183.733 184.453 183.739V185.281C184.385 185.27 184.266 185.253 184.095 185.23C183.925 185.207 183.74 185.196 183.541 185.196C182.859 185.196 182.251 185.341 181.717 185.631C181.189 185.915 180.771 186.31 180.464 186.815C180.158 187.321 180.004 187.898 180.004 188.545V197H178.487ZM188.252 196.668C187.917 196.668 187.627 196.548 187.383 196.31C187.144 196.071 187.025 195.781 187.025 195.44C187.025 195.105 187.144 194.818 187.383 194.58C187.627 194.335 187.917 194.213 188.252 194.213C188.593 194.213 188.883 194.335 189.121 194.58C189.36 194.818 189.479 195.105 189.479 195.44C189.479 195.668 189.423 195.875 189.309 196.062C189.201 196.244 189.053 196.392 188.866 196.506C188.684 196.614 188.479 196.668 188.252 196.668ZM188.252 187.224C187.917 187.224 187.627 187.105 187.383 186.866C187.144 186.628 187.025 186.338 187.025 185.997C187.025 185.662 187.144 185.375 187.383 185.136C187.627 184.892 187.917 184.77 188.252 184.77C188.593 184.77 188.883 184.892 189.121 185.136C189.36 185.375 189.479 185.662 189.479 185.997C189.479 186.224 189.423 186.432 189.309 186.619C189.201 186.801 189.053 186.949 188.866 187.062C188.684 187.17 188.479 187.224 188.252 187.224Z" fill="black"/>
<path d="M50.3352 221.909C50.3352 224.764 49.794 227.193 48.7116 229.196C47.6378 231.199 46.1719 232.729 44.3139 233.786C42.4645 234.834 40.3849 235.358 38.0753 235.358C35.7486 235.358 33.6605 234.83 31.8111 233.773C29.9616 232.716 28.5 231.186 27.4261 229.183C26.3523 227.18 25.8153 224.756 25.8153 221.909C25.8153 219.054 26.3523 216.625 27.4261 214.622C28.5 212.619 29.9616 211.094 31.8111 210.045C33.6605 208.989 35.7486 208.46 38.0753 208.46C40.3849 208.46 42.4645 208.989 44.3139 210.045C46.1719 211.094 47.6378 212.619 48.7116 214.622C49.794 216.625 50.3352 219.054 50.3352 221.909ZM44.723 221.909C44.723 220.06 44.446 218.5 43.892 217.23C43.3466 215.96 42.5753 214.997 41.5781 214.341C40.581 213.685 39.4134 213.357 38.0753 213.357C36.7372 213.357 35.5696 213.685 34.5724 214.341C33.5753 214.997 32.7997 215.96 32.2457 217.23C31.7003 218.5 31.4276 220.06 31.4276 221.909C31.4276 223.759 31.7003 225.318 32.2457 226.588C32.7997 227.858 33.5753 228.821 34.5724 229.477C35.5696 230.134 36.7372 230.462 38.0753 230.462C39.4134 230.462 40.581 230.134 41.5781 229.477C42.5753 228.821 43.3466 227.858 43.892 226.588C44.446 225.318 44.723 223.759 44.723 221.909ZM63.717 235H54.4357V208.818H63.7937C66.4272 208.818 68.6942 209.342 70.5948 210.391C72.4954 211.43 73.957 212.926 74.9798 214.878C76.011 216.83 76.5266 219.165 76.5266 221.884C76.5266 224.611 76.011 226.955 74.9798 228.915C73.957 230.875 72.4869 232.379 70.5692 233.428C68.6602 234.476 66.3761 235 63.717 235ZM59.9712 230.257H63.4869C65.1232 230.257 66.4996 229.967 67.6161 229.388C68.7411 228.8 69.5849 227.892 70.1474 226.665C70.7184 225.429 71.0039 223.835 71.0039 221.884C71.0039 219.949 70.7184 218.368 70.1474 217.141C69.5849 215.913 68.7454 215.01 67.6289 214.43C66.5124 213.851 65.136 213.561 63.4996 213.561H59.9712V230.257ZM96.799 208.818H102.335V225.821C102.335 227.73 101.879 229.401 100.967 230.832C100.063 232.264 98.7976 233.381 97.1697 234.182C95.5419 234.974 93.6456 235.371 91.4808 235.371C89.3075 235.371 87.407 234.974 85.7791 234.182C84.1513 233.381 82.8857 232.264 81.9822 230.832C81.0788 229.401 80.6271 227.73 80.6271 225.821V208.818H86.1626V225.348C86.1626 226.345 86.38 227.232 86.8146 228.007C87.2578 228.783 87.88 229.392 88.6811 229.835C89.4822 230.278 90.4155 230.5 91.4808 230.5C92.5547 230.5 93.4879 230.278 94.2805 229.835C95.0817 229.392 95.6996 228.783 96.1342 228.007C96.5774 227.232 96.799 226.345 96.799 225.348V208.818ZM106.889 235V208.818H117.372C119.298 208.818 120.904 209.104 122.191 209.675C123.478 210.246 124.446 211.038 125.093 212.053C125.741 213.058 126.065 214.217 126.065 215.53C126.065 216.553 125.86 217.452 125.451 218.227C125.042 218.994 124.48 219.625 123.764 220.119C123.056 220.605 122.247 220.95 121.335 221.155V221.411C122.332 221.453 123.265 221.734 124.135 222.254C125.012 222.774 125.724 223.503 126.27 224.44C126.815 225.369 127.088 226.477 127.088 227.764C127.088 229.153 126.743 230.393 126.052 231.484C125.37 232.567 124.36 233.423 123.022 234.054C121.684 234.685 120.035 235 118.075 235H106.889ZM112.424 230.474H116.937C118.48 230.474 119.605 230.18 120.312 229.592C121.02 228.996 121.373 228.203 121.373 227.214C121.373 226.49 121.199 225.851 120.849 225.297C120.5 224.743 120.001 224.308 119.353 223.993C118.714 223.678 117.951 223.52 117.065 223.52H112.424V230.474ZM112.424 219.774H116.528C117.287 219.774 117.96 219.642 118.548 219.378C119.145 219.105 119.613 218.722 119.954 218.227C120.304 217.733 120.478 217.141 120.478 216.45C120.478 215.504 120.142 214.741 119.468 214.162C118.804 213.582 117.858 213.293 116.63 213.293H112.424V219.774ZM130.69 235V208.818H148.025V213.382H136.225V219.621H146.874V224.185H136.225V235H130.69ZM152.991 235H147.06L156.098 208.818H163.232L172.257 235H166.325L159.767 214.801H159.562L152.991 235ZM152.621 224.709H166.632V229.03H152.621V224.709ZM189.014 216.348C188.912 215.317 188.473 214.516 187.697 213.945C186.922 213.374 185.869 213.088 184.539 213.088C183.636 213.088 182.873 213.216 182.251 213.472C181.629 213.719 181.152 214.064 180.819 214.507C180.495 214.95 180.333 215.453 180.333 216.016C180.316 216.484 180.414 216.893 180.627 217.243C180.849 217.592 181.152 217.895 181.535 218.151C181.919 218.398 182.362 218.615 182.865 218.803C183.368 218.982 183.904 219.135 184.475 219.263L186.828 219.825C187.97 220.081 189.018 220.422 189.973 220.848C190.927 221.274 191.754 221.798 192.453 222.42C193.152 223.043 193.693 223.776 194.076 224.619C194.468 225.463 194.669 226.43 194.677 227.521C194.669 229.124 194.26 230.513 193.45 231.689C192.649 232.857 191.49 233.764 189.973 234.412C188.464 235.051 186.645 235.371 184.514 235.371C182.4 235.371 180.559 235.047 178.991 234.399C177.431 233.751 176.213 232.793 175.335 231.523C174.466 230.244 174.01 228.663 173.967 226.78H179.324C179.383 227.658 179.635 228.391 180.078 228.979C180.529 229.558 181.13 229.997 181.88 230.295C182.639 230.585 183.495 230.73 184.45 230.73C185.387 230.73 186.201 230.594 186.892 230.321C187.591 230.048 188.132 229.669 188.515 229.183C188.899 228.697 189.091 228.139 189.091 227.509C189.091 226.92 188.916 226.426 188.566 226.026C188.225 225.625 187.723 225.284 187.058 225.003C186.402 224.722 185.596 224.466 184.642 224.236L181.791 223.52C179.583 222.983 177.841 222.143 176.562 221.001C175.284 219.859 174.649 218.321 174.657 216.386C174.649 214.801 175.071 213.416 175.923 212.232C176.784 211.047 177.964 210.122 179.464 209.457C180.964 208.793 182.669 208.46 184.578 208.46C186.521 208.46 188.217 208.793 189.666 209.457C191.123 210.122 192.257 211.047 193.066 212.232C193.876 213.416 194.294 214.788 194.319 216.348H189.014ZM207.682 235H198.401V208.818H207.759C210.392 208.818 212.659 209.342 214.56 210.391C216.46 211.43 217.922 212.926 218.945 214.878C219.976 216.83 220.491 219.165 220.491 221.884C220.491 224.611 219.976 226.955 218.945 228.915C217.922 230.875 216.452 232.379 214.534 233.428C212.625 234.476 210.341 235 207.682 235ZM203.936 230.257H207.452C209.088 230.257 210.464 229.967 211.581 229.388C212.706 228.8 213.55 227.892 214.112 226.665C214.683 225.429 214.969 223.835 214.969 221.884C214.969 219.949 214.683 218.368 214.112 217.141C213.55 215.913 212.71 215.01 211.594 214.43C210.477 213.851 209.101 213.561 207.464 213.561H203.936V230.257ZM224.592 208.818H231.419L238.629 226.409H238.936L246.146 208.818H252.973V235H247.603V217.959H247.386L240.61 234.872H236.954L230.179 217.895H229.961V235H224.592V208.818ZM257.533 235V208.818H267.863C269.84 208.818 271.528 209.172 272.925 209.879C274.332 210.578 275.401 211.571 276.134 212.858C276.876 214.136 277.246 215.641 277.246 217.371C277.246 219.109 276.871 220.605 276.121 221.858C275.371 223.102 274.285 224.057 272.862 224.722C271.447 225.386 269.734 225.719 267.722 225.719H260.806V221.27H266.827C267.884 221.27 268.762 221.125 269.461 220.835C270.16 220.545 270.68 220.111 271.021 219.531C271.37 218.952 271.545 218.232 271.545 217.371C271.545 216.501 271.37 215.768 271.021 215.172C270.68 214.575 270.156 214.124 269.448 213.817C268.749 213.501 267.867 213.344 266.802 213.344H263.069V235H257.533ZM271.673 223.085L278.18 235H272.069L265.702 223.085H271.673ZM297.33 208.818H302.866V225.821C302.866 227.73 302.41 229.401 301.498 230.832C300.594 232.264 299.329 233.381 297.701 234.182C296.073 234.974 294.177 235.371 292.012 235.371C289.839 235.371 287.938 234.974 286.31 234.182C284.683 233.381 283.417 232.264 282.513 230.832C281.61 229.401 281.158 227.73 281.158 225.821V208.818H286.694V225.348C286.694 226.345 286.911 227.232 287.346 228.007C287.789 228.783 288.411 229.392 289.212 229.835C290.013 230.278 290.947 230.5 292.012 230.5C293.086 230.5 294.019 230.278 294.812 229.835C295.613 229.392 296.231 228.783 296.665 228.007C297.109 227.232 297.33 226.345 297.33 225.348V208.818ZM307.42 208.818H314.247L321.457 226.409H321.764L328.974 208.818H335.801V235H330.431V217.959H330.214L323.439 234.872H319.782L313.007 217.895H312.789V235H307.42V208.818Z" fill="black"/>
</svg>
